{
  "shell_port": 38701,
  "iopub_port": 42667,
  "stdin_port": 41701,
  "control_port": 54547,
  "hb_port": 51557,
  "ip": "127.0.0.1",
  "key": "4e7453af-e59aa651673d8e42fb59daab",
  "transport": "tcp",
  "signature_scheme": "hmac-sha256",
  "kernel_name": ""
}